Decifrando gráficos #1 – Bruno Mioto
…
Trabalhando com os dados

Mas veja que os nomes das variáveis tem letras maiúsculas e espaços (Championship Years). Vamos padronizar para snake_casecom o pacote {janitor}. Vamos salvar cada passo em um novo objeto para ficar mais fácil de acompanhar.

pilotos_clean <- janitor::clean_names(pilotos)

Vamos filtrar apenas os brasileiros e analisar este dataset

pilotos_br <- pilotos_clean |> 
  dplyr::filter(nationality == "Brazil")

pilotos_br

# A tibble: 32 × 22
   driver             nationality seasons championships race_entries race_starts
   <chr>              <chr>       <chr>           <dbl>        <dbl>       <dbl>
 1 Rubens Barrichello Brazil      [1993,…             0          326         322
 2 Enrique Bernoldi   Brazil      [2001,…             0           29          28
 3 Gino Bianco        Brazil      [1952]              0            4           4
 4 Raul Boesel        Brazil      [1982,…             0           30          23
 5 Luiz Bueno         Brazil      [1973]              0            1           1
 6 Luciano Burti      Brazil      [2000,…             0           15          14
 7 Pedro Diniz        Brazil      [1995,…             0           99          98
 8 Christian Fittipa… Brazil      [1992,…             0           43          40
 9 Emerson Fittipaldi Brazil      [1970,…             2          149         144
10 Pietro Fittipaldi  Brazil      [2020]              0            2           2
# ℹ 22 more rows
# ℹ 16 more variables: pole_positions <dbl>, race_wins <dbl>, podiums <dbl>,
#   fastest_laps <dbl>, points <dbl>, active <lgl>, championship_years <chr>,
#   decade <dbl>, pole_rate <dbl>, start_rate <dbl>, win_rate <dbl>,
#   podium_rate <dbl>, fast_lap_rate <dbl>, points_per_entry <dbl>,
#   years_active <dbl>, champion <lgl>
…
